MiFare ID (10-digits),Key Code,Key Name,Key Group (optional - must be an integer),Notes (optional - DO NOT USE COMMAS)
1234567891,CR01,Combination Room 01,,
1234567892,CR02,Combination Room 02,,
701687819,SR01,Study Room 01,,
701687195,SR02,Study Room 02,,
